{
  "contact": [
    {
      "isTrusted": true,
      "name": "Dang Van Lam",
      "gender": "Male",
      "email": "lamtay@gmail.com",
      "phone": "0929876234",
      "description": "Hihi",
      "id": 1
    },
    {
      "isTrusted": true,
      "name": "Tran Dinh Trong",
      "gender": "Female",
      "email": "trongin@gmail.com",
      "phone": "0343888978",
      "description": "Hehe",
      "id": 2
    },
    {
      "isTrusted": true,
      "name": "Que Ngoc Hai",
      "gender": "Male",
      "email": "haique@gmail.com",
      "phone": "0912345765",
      "id": 3
    },
    {
      "isTrusted": true,
      "name": "Doan Van Hau",
      "gender": "Male",
      "email": "hau@gmail.com",
      "phone": "0852196414",
      "id": 4
    },
    {
      "isTrusted": true,
      "name": "Nguyen Trong Hoang",
      "gender": "Male",
      "email": "hoangbo@gmail.com",
      "phone": "0987876765",
      "id": 5
    },
    {
      "isTrusted": true,
      "name": "Luong Xuan Truong",
      "gender": "Male",
      "email": "truonghip@gmail.com",
      "phone": "0987654342",
      "id": 6
    },
    {
      "isTrusted": true,
      "name": "Do Hung Dung",
      "gender": "Male",
      "email": "dung@gmail.com",
      "phone": "0123345683",
      "id": 7
    },
    {
      "isTrusted": true,
      "name": "Nguyen Tuan Anh",
      "gender": "Male",
      "email": "nho@gmail.com",
      "phone": "0987678765",
      "id": 8
    },
    {
      "isTrusted": true,
      "name": "Nguyen Cong Phuong",
      "gender": "Male",
      "email": "phuonggo@gmail.com",
      "phone": "0852196411",
      "id": 9
    },
    {
      "isTrusted": true,
      "name": "Nguyen Quang Hai",
      "gender": "Male",
      "email": "quanghai@gmail.com",
      "phone": "0852196413",
      "id": 10
    },
    {
      "isTrusted": true,
      "name": "Nguyen Van Toan",
      "gender": "Male",
      "email": "toan@gmail.com",
      "phone": "0852196410",
      "id": 11
    }
  ]
}